('C:\\Users\\charles.souza\\PycharmProjects\\Pingo\\build\\pingo\\pingo.pkg',
 {'BINARY': 1,
  'DATA': 1,
  'EXECUTABLE': 1,
  'EXTENSION': 1,
  'PYMODULE': 1,
  'PYSOURCE': 1,
  'PYZ': 0,
  'SPLASH': 1},
 [('PYZ-00.pyz',
   'C:\\Users\\charles.souza\\PycharmProjects\\Pingo\\build\\pingo\\PYZ-00.pyz',
   'PYZ'),
  ('struct',
   'C:\\Users\\charles.souza\\PycharmProjects\\Pingo\\build\\pingo\\localpycs\\struct.pyc',
   'PYMODULE'),
  ('pyimod01_archive',
   'C:\\Users\\charles.souza\\PycharmProjects\\Pingo\\build\\pingo\\localpycs\\pyimod01_archive.pyc',
   'PYMODULE'),
  ('pyimod02_importers',
   'C:\\Users\\charles.souza\\PycharmProjects\\Pingo\\build\\pingo\\localpycs\\pyimod02_importers.pyc',
   'PYMODULE'),
  ('pyimod03_ctypes',
   'C:\\Users\\charles.souza\\PycharmProjects\\Pingo\\build\\pingo\\localpycs\\pyimod03_ctypes.pyc',
   'PYMODULE'),
  ('pyimod04_pywin32',
   'C:\\Users\\charles.souza\\PycharmProjects\\Pingo\\build\\pingo\\localpycs\\pyimod04_pywin32.pyc',
   'PYMODULE'),
  ('pyiboot01_bootstrap',
   'C:\\Users\\charles.souza\\AppData\\Local\\Programs\\Python\\Python311\\Lib\\site-packages\\PyInstaller\\loader\\pyiboot01_bootstrap.py',
   'PYSOURCE'),
  ('pyi_rth_inspect',
   'C:\\Users\\charles.souza\\AppData\\Local\\Programs\\Python\\Python311\\Lib\\site-packages\\PyInstaller\\hooks\\rthooks\\pyi_rth_inspect.py',
   'PYSOURCE'),
  ('pyi_rth_subprocess',
   'C:\\Users\\charles.souza\\AppData\\Local\\Programs\\Python\\Python311\\Lib\\site-packages\\PyInstaller\\hooks\\rthooks\\pyi_rth_subprocess.py',
   'PYSOURCE'),
  ('pyi_rth_pkgutil',
   'C:\\Users\\charles.souza\\AppData\\Local\\Programs\\Python\\Python311\\Lib\\site-packages\\PyInstaller\\hooks\\rthooks\\pyi_rth_pkgutil.py',
   'PYSOURCE'),
  ('pyi_rth_multiprocessing',
   'C:\\Users\\charles.souza\\AppData\\Local\\Programs\\Python\\Python311\\Lib\\site-packages\\PyInstaller\\hooks\\rthooks\\pyi_rth_multiprocessing.py',
   'PYSOURCE'),
  ('pingo',
   'C:\\Users\\charles.souza\\PycharmProjects\\Pingo\\pingo.py',
   'PYSOURCE'),
  ('python311.dll',
   'C:\\Users\\charles.souza\\AppData\\Local\\Programs\\Python\\Python311\\python311.dll',
   'BINARY'),
  ('VCRUNTIME140.dll',
   'C:\\Users\\charles.souza\\AppData\\Local\\Programs\\Python\\Python311\\VCRUNTIME140.dll',
   'BINARY'),
  ('_multiprocessing',
   'C:\\Users\\charles.souza\\AppData\\Local\\Programs\\Python\\Python311\\DLLs\\_multiprocessing.pyd',
   'EXTENSION'),
  ('pyexpat',
   'C:\\Users\\charles.souza\\AppData\\Local\\Programs\\Python\\Python311\\DLLs\\pyexpat.pyd',
   'EXTENSION'),
  ('_ssl',
   'C:\\Users\\charles.souza\\AppData\\Local\\Programs\\Python\\Python311\\DLLs\\_ssl.pyd',
   'EXTENSION'),
  ('_hashlib',
   'C:\\Users\\charles.souza\\AppData\\Local\\Programs\\Python\\Python311\\DLLs\\_hashlib.pyd',
   'EXTENSION'),
  ('_decimal',
   'C:\\Users\\charles.souza\\AppData\\Local\\Programs\\Python\\Python311\\DLLs\\_decimal.pyd',
   'EXTENSION'),
  ('_socket',
   'C:\\Users\\charles.souza\\AppData\\Local\\Programs\\Python\\Python311\\DLLs\\_socket.pyd',
   'EXTENSION'),
  ('select',
   'C:\\Users\\charles.souza\\AppData\\Local\\Programs\\Python\\Python311\\DLLs\\select.pyd',
   'EXTENSION'),
  ('_lzma',
   'C:\\Users\\charles.souza\\AppData\\Local\\Programs\\Python\\Python311\\DLLs\\_lzma.pyd',
   'EXTENSION'),
  ('_bz2',
   'C:\\Users\\charles.souza\\AppData\\Local\\Programs\\Python\\Python311\\DLLs\\_bz2.pyd',
   'EXTENSION'),
  ('_queue',
   'C:\\Users\\charles.souza\\AppData\\Local\\Programs\\Python\\Python311\\DLLs\\_queue.pyd',
   'EXTENSION'),
  ('unicodedata',
   'C:\\Users\\charles.souza\\AppData\\Local\\Programs\\Python\\Python311\\DLLs\\unicodedata.pyd',
   'EXTENSION'),
  ('_ctypes',
   'C:\\Users\\charles.souza\\AppData\\Local\\Programs\\Python\\Python311\\DLLs\\_ctypes.pyd',
   'EXTENSION'),
  ('_overlapped',
   'C:\\Users\\charles.souza\\AppData\\Local\\Programs\\Python\\Python311\\DLLs\\_overlapped.pyd',
   'EXTENSION'),
  ('_asyncio',
   'C:\\Users\\charles.souza\\AppData\\Local\\Programs\\Python\\Python311\\DLLs\\_asyncio.pyd',
   'EXTENSION'),
  ('libcrypto-1_1.dll',
   'C:\\Users\\charles.souza\\AppData\\Local\\Programs\\Python\\Python311\\DLLs\\libcrypto-1_1.dll',
   'BINARY'),
  ('libssl-1_1.dll',
   'C:\\Users\\charles.souza\\AppData\\Local\\Programs\\Python\\Python311\\DLLs\\libssl-1_1.dll',
   'BINARY'),
  ('libffi-8.dll',
   'C:\\Users\\charles.souza\\AppData\\Local\\Programs\\Python\\Python311\\DLLs\\libffi-8.dll',
   'BINARY'),
  ('base_library.zip',
   'C:\\Users\\charles.souza\\PycharmProjects\\Pingo\\build\\pingo\\base_library.zip',
   'DATA')],
 False,
 False,
 False,
 [],
 None,
 None,
 None)
