('C:\\Users\\charles.souza\\PycharmProjects\\Pingo\\build\\pingo\\PYZ-00.pyz',
 [('multiprocessing.popen_spawn_posix',
   'C:\\Users\\charles.souza\\AppData\\Local\\Programs\\Python\\Python311\\Lib\\multiprocessing\\popen_spawn_posix.py',
   'PYMODULE'),
  ('multiprocessing.resource_tracker',
   'C:\\Users\\charles.souza\\AppData\\Local\\Programs\\Python\\Python311\\Lib\\multiprocessing\\resource_tracker.py',
   'PYMODULE'),
  ('threading',
   'C:\\Users\\charles.souza\\AppData\\Local\\Programs\\Python\\Python311\\Lib\\threading.py',
   'PYMODULE'),
  ('_threading_local',
   'C:\\Users\\charles.souza\\AppData\\Local\\Programs\\Python\\Python311\\Lib\\_threading_local.py',
   'PYMODULE'),
  ('contextlib',
   'C:\\Users\\charles.souza\\AppData\\Local\\Programs\\Python\\Python311\\Lib\\contextlib.py',
   'PYMODULE'),
  ('signal',
   'C:\\Users\\charles.souza\\AppData\\Local\\Programs\\Python\\Python311\\Lib\\signal.py',
   'PYMODULE'),
  ('multiprocessing.util',
   'C:\\Users\\charles.souza\\AppData\\Local\\Programs\\Python\\Python311\\Lib\\multiprocessing\\util.py',
   'PYMODULE'),
  ('multiprocessing.forkserver',
   'C:\\Users\\charles.souza\\AppData\\Local\\Programs\\Python\\Python311\\Lib\\multiprocessing\\forkserver.py',
   'PYMODULE'),
  ('multiprocessing.connection',
   'C:\\Users\\charles.souza\\AppData\\Local\\Programs\\Python\\Python311\\Lib\\multiprocessing\\connection.py',
   'PYMODULE'),
  ('multiprocessing.resource_sharer',
   'C:\\Users\\charles.souza\\AppData\\Local\\Programs\\Python\\Python311\\Lib\\multiprocessing\\resource_sharer.py',
   'PYMODULE'),
  ('xmlrpc.client',
   'C:\\Users\\charles.souza\\AppData\\Local\\Programs\\Python\\Python311\\Lib\\xmlrpc\\client.py',
   'PYMODULE'),
  ('xmlrpc',
   'C:\\Users\\charles.souza\\AppData\\Local\\Programs\\Python\\Python311\\Lib\\xmlrpc\\__init__.py',
   'PYMODULE'),
  ('gzip',
   'C:\\Users\\charles.souza\\AppData\\Local\\Programs\\Python\\Python311\\Lib\\gzip.py',
   'PYMODULE'),
  ('argparse',
   'C:\\Users\\charles.souza\\AppData\\Local\\Programs\\Python\\Python311\\Lib\\argparse.py',
   'PYMODULE'),
  ('textwrap',
   'C:\\Users\\charles.souza\\AppData\\Local\\Programs\\Python\\Python311\\Lib\\textwrap.py',
   'PYMODULE'),
  ('copy',
   'C:\\Users\\charles.souza\\AppData\\Local\\Programs\\Python\\Python311\\Lib\\copy.py',
   'PYMODULE'),
  ('gettext',
   'C:\\Users\\charles.souza\\AppData\\Local\\Programs\\Python\\Python311\\Lib\\gettext.py',
   'PYMODULE'),
  ('_compression',
   'C:\\Users\\charles.souza\\AppData\\Local\\Programs\\Python\\Python311\\Lib\\_compression.py',
   'PYMODULE'),
  ('xml.parsers.expat',
   'C:\\Users\\charles.souza\\AppData\\Local\\Programs\\Python\\Python311\\Lib\\xml\\parsers\\expat.py',
   'PYMODULE'),
  ('xml.parsers',
   'C:\\Users\\charles.souza\\AppData\\Local\\Programs\\Python\\Python311\\Lib\\xml\\parsers\\__init__.py',
   'PYMODULE'),
  ('xml',
   'C:\\Users\\charles.souza\\AppData\\Local\\Programs\\Python\\Python311\\Lib\\xml\\__init__.py',
   'PYMODULE'),
  ('xml.sax.expatreader',
   'C:\\Users\\charles.souza\\AppData\\Local\\Programs\\Python\\Python311\\Lib\\xml\\sax\\expatreader.py',
   'PYMODULE'),
  ('xml.sax.saxutils',
   'C:\\Users\\charles.souza\\AppData\\Local\\Programs\\Python\\Python311\\Lib\\xml\\sax\\saxutils.py',
   'PYMODULE'),
  ('xml.sax',
   'C:\\Users\\charles.souza\\AppData\\Local\\Programs\\Python\\Python311\\Lib\\xml\\sax\\__init__.py',
   'PYMODULE'),
  ('xml.sax.handler',
   'C:\\Users\\charles.souza\\AppData\\Local\\Programs\\Python\\Python311\\Lib\\xml\\sax\\handler.py',
   'PYMODULE'),
  ('xml.sax._exceptions',
   'C:\\Users\\charles.souza\\AppData\\Local\\Programs\\Python\\Python311\\Lib\\xml\\sax\\_exceptions.py',
   'PYMODULE'),
  ('xml.sax.xmlreader',
   'C:\\Users\\charles.souza\\AppData\\Local\\Programs\\Python\\Python311\\Lib\\xml\\sax\\xmlreader.py',
   'PYMODULE'),
  ('http.client',
   'C:\\Users\\charles.souza\\AppData\\Local\\Programs\\Python\\Python311\\Lib\\http\\client.py',
   'PYMODULE'),
  ('ssl',
   'C:\\Users\\charles.souza\\AppData\\Local\\Programs\\Python\\Python311\\Lib\\ssl.py',
   'PYMODULE'),
  ('calendar',
   'C:\\Users\\charles.souza\\AppData\\Local\\Programs\\Python\\Python311\\Lib\\calendar.py',
   'PYMODULE'),
  ('http',
   'C:\\Users\\charles.souza\\AppData\\Local\\Programs\\Python\\Python311\\Lib\\http\\__init__.py',
   'PYMODULE'),
  ('email.message',
   'C:\\Users\\charles.souza\\AppData\\Local\\Programs\\Python\\Python311\\Lib\\email\\message.py',
   'PYMODULE'),
  ('email.policy',
   'C:\\Users\\charles.souza\\AppData\\Local\\Programs\\Python\\Python311\\Lib\\email\\policy.py',
   'PYMODULE'),
  ('email.contentmanager',
   'C:\\Users\\charles.souza\\AppData\\Local\\Programs\\Python\\Python311\\Lib\\email\\contentmanager.py',
   'PYMODULE'),
  ('email.quoprimime',
   'C:\\Users\\charles.souza\\AppData\\Local\\Programs\\Python\\Python311\\Lib\\email\\quoprimime.py',
   'PYMODULE'),
  ('string',
   'C:\\Users\\charles.souza\\AppData\\Local\\Programs\\Python\\Python311\\Lib\\string.py',
   'PYMODULE'),
  ('email.headerregistry',
   'C:\\Users\\charles.souza\\AppData\\Local\\Programs\\Python\\Python311\\Lib\\email\\headerregistry.py',
   'PYMODULE'),
  ('email._header_value_parser',
   'C:\\Users\\charles.souza\\AppData\\Local\\Programs\\Python\\Python311\\Lib\\email\\_header_value_parser.py',
   'PYMODULE'),
  ('email.iterators',
   'C:\\Users\\charles.souza\\AppData\\Local\\Programs\\Python\\Python311\\Lib\\email\\iterators.py',
   'PYMODULE'),
  ('email.generator',
   'C:\\Users\\charles.souza\\AppData\\Local\\Programs\\Python\\Python311\\Lib\\email\\generator.py',
   'PYMODULE'),
  ('random',
   'C:\\Users\\charles.souza\\AppData\\Local\\Programs\\Python\\Python311\\Lib\\random.py',
   'PYMODULE'),
  ('statistics',
   'C:\\Users\\charles.souza\\AppData\\Local\\Programs\\Python\\Python311\\Lib\\statistics.py',
   'PYMODULE'),
  ('fractions',
   'C:\\Users\\charles.souza\\AppData\\Local\\Programs\\Python\\Python311\\Lib\\fractions.py',
   'PYMODULE'),
  ('numbers',
   'C:\\Users\\charles.souza\\AppData\\Local\\Programs\\Python\\Python311\\Lib\\numbers.py',
   'PYMODULE'),
  ('hashlib',
   'C:\\Users\\charles.souza\\AppData\\Local\\Programs\\Python\\Python311\\Lib\\hashlib.py',
   'PYMODULE'),
  ('bisect',
   'C:\\Users\\charles.souza\\AppData\\Local\\Programs\\Python\\Python311\\Lib\\bisect.py',
   'PYMODULE'),
  ('email._encoded_words',
   'C:\\Users\\charles.souza\\AppData\\Local\\Programs\\Python\\Python311\\Lib\\email\\_encoded_words.py',
   'PYMODULE'),
  ('email.charset',
   'C:\\Users\\charles.souza\\AppData\\Local\\Programs\\Python\\Python311\\Lib\\email\\charset.py',
   'PYMODULE'),
  ('email.encoders',
   'C:\\Users\\charles.souza\\AppData\\Local\\Programs\\Python\\Python311\\Lib\\email\\encoders.py',
   'PYMODULE'),
  ('email.base64mime',
   'C:\\Users\\charles.souza\\AppData\\Local\\Programs\\Python\\Python311\\Lib\\email\\base64mime.py',
   'PYMODULE'),
  ('email._policybase',
   'C:\\Users\\charles.souza\\AppData\\Local\\Programs\\Python\\Python311\\Lib\\email\\_policybase.py',
   'PYMODULE'),
  ('email.header',
   'C:\\Users\\charles.souza\\AppData\\Local\\Programs\\Python\\Python311\\Lib\\email\\header.py',
   'PYMODULE'),
  ('email.errors',
   'C:\\Users\\charles.souza\\AppData\\Local\\Programs\\Python\\Python311\\Lib\\email\\errors.py',
   'PYMODULE'),
  ('email.utils',
   'C:\\Users\\charles.souza\\AppData\\Local\\Programs\\Python\\Python311\\Lib\\email\\utils.py',
   'PYMODULE'),
  ('email._parseaddr',
   'C:\\Users\\charles.souza\\AppData\\Local\\Programs\\Python\\Python311\\Lib\\email\\_parseaddr.py',
   'PYMODULE'),
  ('email',
   'C:\\Users\\charles.souza\\AppData\\Local\\Programs\\Python\\Python311\\Lib\\email\\__init__.py',
   'PYMODULE'),
  ('quopri',
   'C:\\Users\\charles.souza\\AppData\\Local\\Programs\\Python\\Python311\\Lib\\quopri.py',
   'PYMODULE'),
  ('getopt',
   'C:\\Users\\charles.souza\\AppData\\Local\\Programs\\Python\\Python311\\Lib\\getopt.py',
   'PYMODULE'),
  ('email.parser',
   'C:\\Users\\charles.souza\\AppData\\Local\\Programs\\Python\\Python311\\Lib\\email\\parser.py',
   'PYMODULE'),
  ('email.feedparser',
   'C:\\Users\\charles.souza\\AppData\\Local\\Programs\\Python\\Python311\\Lib\\email\\feedparser.py',
   'PYMODULE'),
  ('decimal',
   'C:\\Users\\charles.souza\\AppData\\Local\\Programs\\Python\\Python311\\Lib\\decimal.py',
   'PYMODULE'),
  ('_pydecimal',
   'C:\\Users\\charles.souza\\AppData\\Local\\Programs\\Python\\Python311\\Lib\\_pydecimal.py',
   'PYMODULE'),
  ('contextvars',
   'C:\\Users\\charles.souza\\AppData\\Local\\Programs\\Python\\Python311\\Lib\\contextvars.py',
   'PYMODULE'),
  ('datetime',
   'C:\\Users\\charles.souza\\AppData\\Local\\Programs\\Python\\Python311\\Lib\\datetime.py',
   'PYMODULE'),
  ('_strptime',
   'C:\\Users\\charles.souza\\AppData\\Local\\Programs\\Python\\Python311\\Lib\\_strptime.py',
   'PYMODULE'),
  ('base64',
   'C:\\Users\\charles.souza\\AppData\\Local\\Programs\\Python\\Python311\\Lib\\base64.py',
   'PYMODULE'),
  ('hmac',
   'C:\\Users\\charles.souza\\AppData\\Local\\Programs\\Python\\Python311\\Lib\\hmac.py',
   'PYMODULE'),
  ('struct',
   'C:\\Users\\charles.souza\\AppData\\Local\\Programs\\Python\\Python311\\Lib\\struct.py',
   'PYMODULE'),
  ('socket',
   'C:\\Users\\charles.souza\\AppData\\Local\\Programs\\Python\\Python311\\Lib\\socket.py',
   'PYMODULE'),
  ('selectors',
   'C:\\Users\\charles.souza\\AppData\\Local\\Programs\\Python\\Python311\\Lib\\selectors.py',
   'PYMODULE'),
  ('tempfile',
   'C:\\Users\\charles.souza\\AppData\\Local\\Programs\\Python\\Python311\\Lib\\tempfile.py',
   'PYMODULE'),
  ('shutil',
   'C:\\Users\\charles.souza\\AppData\\Local\\Programs\\Python\\Python311\\Lib\\shutil.py',
   'PYMODULE'),
  ('zipfile',
   'C:\\Users\\charles.souza\\AppData\\Local\\Programs\\Python\\Python311\\Lib\\zipfile.py',
   'PYMODULE'),
  ('py_compile',
   'C:\\Users\\charles.souza\\AppData\\Local\\Programs\\Python\\Python311\\Lib\\py_compile.py',
   'PYMODULE'),
  ('importlib.machinery',
   'C:\\Users\\charles.souza\\AppData\\Local\\Programs\\Python\\Python311\\Lib\\importlib\\machinery.py',
   'PYMODULE'),
  ('importlib',
   'C:\\Users\\charles.souza\\AppData\\Local\\Programs\\Python\\Python311\\Lib\\importlib\\__init__.py',
   'PYMODULE'),
  ('importlib._bootstrap',
   'C:\\Users\\charles.souza\\AppData\\Local\\Programs\\Python\\Python311\\Lib\\importlib\\_bootstrap.py',
   'PYMODULE'),
  ('importlib._bootstrap_external',
   'C:\\Users\\charles.souza\\AppData\\Local\\Programs\\Python\\Python311\\Lib\\importlib\\_bootstrap_external.py',
   'PYMODULE'),
  ('importlib.metadata',
   'C:\\Users\\charles.souza\\AppData\\Local\\Programs\\Python\\Python311\\Lib\\importlib\\metadata\\__init__.py',
   'PYMODULE'),
  ('typing',
   'C:\\Users\\charles.souza\\AppData\\Local\\Programs\\Python\\Python311\\Lib\\typing.py',
   'PYMODULE'),
  ('importlib.abc',
   'C:\\Users\\charles.souza\\AppData\\Local\\Programs\\Python\\Python311\\Lib\\importlib\\abc.py',
   'PYMODULE'),
  ('importlib.resources.abc',
   'C:\\Users\\charles.souza\\AppData\\Local\\Programs\\Python\\Python311\\Lib\\importlib\\resources\\abc.py',
   'PYMODULE'),
  ('importlib.resources',
   'C:\\Users\\charles.souza\\AppData\\Local\\Programs\\Python\\Python311\\Lib\\importlib\\resources\\__init__.py',
   'PYMODULE'),
  ('importlib.resources._legacy',
   'C:\\Users\\charles.souza\\AppData\\Local\\Programs\\Python\\Python311\\Lib\\importlib\\resources\\_legacy.py',
   'PYMODULE'),
  ('importlib.resources._common',
   'C:\\Users\\charles.souza\\AppData\\Local\\Programs\\Python\\Python311\\Lib\\importlib\\resources\\_common.py',
   'PYMODULE'),
  ('importlib.resources._adapters',
   'C:\\Users\\charles.souza\\AppData\\Local\\Programs\\Python\\Python311\\Lib\\importlib\\resources\\_adapters.py',
   'PYMODULE'),
  ('importlib._abc',
   'C:\\Users\\charles.souza\\AppData\\Local\\Programs\\Python\\Python311\\Lib\\importlib\\_abc.py',
   'PYMODULE'),
  ('importlib.metadata._itertools',
   'C:\\Users\\charles.souza\\AppData\\Local\\Programs\\Python\\Python311\\Lib\\importlib\\metadata\\_itertools.py',
   'PYMODULE'),
  ('importlib.metadata._functools',
   'C:\\Users\\charles.souza\\AppData\\Local\\Programs\\Python\\Python311\\Lib\\importlib\\metadata\\_functools.py',
   'PYMODULE'),
  ('importlib.metadata._collections',
   'C:\\Users\\charles.souza\\AppData\\Local\\Programs\\Python\\Python311\\Lib\\importlib\\metadata\\_collections.py',
   'PYMODULE'),
  ('importlib.metadata._meta',
   'C:\\Users\\charles.souza\\AppData\\Local\\Programs\\Python\\Python311\\Lib\\importlib\\metadata\\_meta.py',
   'PYMODULE'),
  ('importlib.metadata._adapters',
   'C:\\Users\\charles.souza\\AppData\\Local\\Programs\\Python\\Python311\\Lib\\importlib\\metadata\\_adapters.py',
   'PYMODULE'),
  ('importlib.metadata._text',
   'C:\\Users\\charles.souza\\AppData\\Local\\Programs\\Python\\Python311\\Lib\\importlib\\metadata\\_text.py',
   'PYMODULE'),
  ('csv',
   'C:\\Users\\charles.souza\\AppData\\Local\\Programs\\Python\\Python311\\Lib\\csv.py',
   'PYMODULE'),
  ('importlib.readers',
   'C:\\Users\\charles.souza\\AppData\\Local\\Programs\\Python\\Python311\\Lib\\importlib\\readers.py',
   'PYMODULE'),
  ('importlib.resources.readers',
   'C:\\Users\\charles.souza\\AppData\\Local\\Programs\\Python\\Python311\\Lib\\importlib\\resources\\readers.py',
   'PYMODULE'),
  ('importlib.resources._itertools',
   'C:\\Users\\charles.souza\\AppData\\Local\\Programs\\Python\\Python311\\Lib\\importlib\\resources\\_itertools.py',
   'PYMODULE'),
  ('importlib.util',
   'C:\\Users\\charles.souza\\AppData\\Local\\Programs\\Python\\Python311\\Lib\\importlib\\util.py',
   'PYMODULE'),
  ('tarfile',
   'C:\\Users\\charles.souza\\AppData\\Local\\Programs\\Python\\Python311\\Lib\\tarfile.py',
   'PYMODULE'),
  ('lzma',
   'C:\\Users\\charles.souza\\AppData\\Local\\Programs\\Python\\Python311\\Lib\\lzma.py',
   'PYMODULE'),
  ('bz2',
   'C:\\Users\\charles.souza\\AppData\\Local\\Programs\\Python\\Python311\\Lib\\bz2.py',
   'PYMODULE'),
  ('logging',
   'C:\\Users\\charles.souza\\AppData\\Local\\Programs\\Python\\Python311\\Lib\\logging\\__init__.py',
   'PYMODULE'),
  ('pickle',
   'C:\\Users\\charles.souza\\AppData\\Local\\Programs\\Python\\Python311\\Lib\\pickle.py',
   'PYMODULE'),
  ('pprint',
   'C:\\Users\\charles.souza\\AppData\\Local\\Programs\\Python\\Python311\\Lib\\pprint.py',
   'PYMODULE'),
  ('dataclasses',
   'C:\\Users\\charles.souza\\AppData\\Local\\Programs\\Python\\Python311\\Lib\\dataclasses.py',
   'PYMODULE'),
  ('inspect',
   'C:\\Users\\charles.souza\\AppData\\Local\\Programs\\Python\\Python311\\Lib\\inspect.py',
   'PYMODULE'),
  ('dis',
   'C:\\Users\\charles.souza\\AppData\\Local\\Programs\\Python\\Python311\\Lib\\dis.py',
   'PYMODULE'),
  ('opcode',
   'C:\\Users\\charles.souza\\AppData\\Local\\Programs\\Python\\Python311\\Lib\\opcode.py',
   'PYMODULE'),
  ('ast',
   'C:\\Users\\charles.souza\\AppData\\Local\\Programs\\Python\\Python311\\Lib\\ast.py',
   'PYMODULE'),
  ('_compat_pickle',
   'C:\\Users\\charles.souza\\AppData\\Local\\Programs\\Python\\Python311\\Lib\\_compat_pickle.py',
   'PYMODULE'),
  ('multiprocessing.process',
   'C:\\Users\\charles.souza\\AppData\\Local\\Programs\\Python\\Python311\\Lib\\multiprocessing\\process.py',
   'PYMODULE'),
  ('multiprocessing.context',
   'C:\\Users\\charles.souza\\AppData\\Local\\Programs\\Python\\Python311\\Lib\\multiprocessing\\context.py',
   'PYMODULE'),
  ('multiprocessing.popen_forkserver',
   'C:\\Users\\charles.souza\\AppData\\Local\\Programs\\Python\\Python311\\Lib\\multiprocessing\\popen_forkserver.py',
   'PYMODULE'),
  ('multiprocessing.sharedctypes',
   'C:\\Users\\charles.souza\\AppData\\Local\\Programs\\Python\\Python311\\Lib\\multiprocessing\\sharedctypes.py',
   'PYMODULE'),
  ('multiprocessing.heap',
   'C:\\Users\\charles.souza\\AppData\\Local\\Programs\\Python\\Python311\\Lib\\multiprocessing\\heap.py',
   'PYMODULE'),
  ('multiprocessing.pool',
   'C:\\Users\\charles.souza\\AppData\\Local\\Programs\\Python\\Python311\\Lib\\multiprocessing\\pool.py',
   'PYMODULE'),
  ('multiprocessing.dummy',
   'C:\\Users\\charles.souza\\AppData\\Local\\Programs\\Python\\Python311\\Lib\\multiprocessing\\dummy\\__init__.py',
   'PYMODULE'),
  ('multiprocessing.dummy.connection',
   'C:\\Users\\charles.souza\\AppData\\Local\\Programs\\Python\\Python311\\Lib\\multiprocessing\\dummy\\connection.py',
   'PYMODULE'),
  ('queue',
   'C:\\Users\\charles.souza\\AppData\\Local\\Programs\\Python\\Python311\\Lib\\queue.py',
   'PYMODULE'),
  ('multiprocessing.queues',
   'C:\\Users\\charles.souza\\AppData\\Local\\Programs\\Python\\Python311\\Lib\\multiprocessing\\queues.py',
   'PYMODULE'),
  ('multiprocessing.synchronize',
   'C:\\Users\\charles.souza\\AppData\\Local\\Programs\\Python\\Python311\\Lib\\multiprocessing\\synchronize.py',
   'PYMODULE'),
  ('multiprocessing.managers',
   'C:\\Users\\charles.souza\\AppData\\Local\\Programs\\Python\\Python311\\Lib\\multiprocessing\\managers.py',
   'PYMODULE'),
  ('multiprocessing.shared_memory',
   'C:\\Users\\charles.souza\\AppData\\Local\\Programs\\Python\\Python311\\Lib\\multiprocessing\\shared_memory.py',
   'PYMODULE'),
  ('secrets',
   'C:\\Users\\charles.souza\\AppData\\Local\\Programs\\Python\\Python311\\Lib\\secrets.py',
   'PYMODULE'),
  ('multiprocessing.reduction',
   'C:\\Users\\charles.souza\\AppData\\Local\\Programs\\Python\\Python311\\Lib\\multiprocessing\\reduction.py',
   'PYMODULE'),
  ('multiprocessing.popen_fork',
   'C:\\Users\\charles.souza\\AppData\\Local\\Programs\\Python\\Python311\\Lib\\multiprocessing\\popen_fork.py',
   'PYMODULE'),
  ('multiprocessing.popen_spawn_win32',
   'C:\\Users\\charles.souza\\AppData\\Local\\Programs\\Python\\Python311\\Lib\\multiprocessing\\popen_spawn_win32.py',
   'PYMODULE'),
  ('multiprocessing.spawn',
   'C:\\Users\\charles.souza\\AppData\\Local\\Programs\\Python\\Python311\\Lib\\multiprocessing\\spawn.py',
   'PYMODULE'),
  ('runpy',
   'C:\\Users\\charles.souza\\AppData\\Local\\Programs\\Python\\Python311\\Lib\\runpy.py',
   'PYMODULE'),
  ('pkgutil',
   'C:\\Users\\charles.souza\\AppData\\Local\\Programs\\Python\\Python311\\Lib\\pkgutil.py',
   'PYMODULE'),
  ('zipimport',
   'C:\\Users\\charles.souza\\AppData\\Local\\Programs\\Python\\Python311\\Lib\\zipimport.py',
   'PYMODULE'),
  ('multiprocessing',
   'C:\\Users\\charles.souza\\AppData\\Local\\Programs\\Python\\Python311\\Lib\\multiprocessing\\__init__.py',
   'PYMODULE'),
  ('stringprep',
   'C:\\Users\\charles.souza\\AppData\\Local\\Programs\\Python\\Python311\\Lib\\stringprep.py',
   'PYMODULE'),
  ('_py_abc',
   'C:\\Users\\charles.souza\\AppData\\Local\\Programs\\Python\\Python311\\Lib\\_py_abc.py',
   'PYMODULE'),
  ('tracemalloc',
   'C:\\Users\\charles.souza\\AppData\\Local\\Programs\\Python\\Python311\\Lib\\tracemalloc.py',
   'PYMODULE'),
  ('getpass',
   'C:\\Users\\charles.souza\\AppData\\Local\\Programs\\Python\\Python311\\Lib\\getpass.py',
   'PYMODULE'),
  ('nturl2path',
   'C:\\Users\\charles.souza\\AppData\\Local\\Programs\\Python\\Python311\\Lib\\nturl2path.py',
   'PYMODULE'),
  ('ftplib',
   'C:\\Users\\charles.souza\\AppData\\Local\\Programs\\Python\\Python311\\Lib\\ftplib.py',
   'PYMODULE'),
  ('netrc',
   'C:\\Users\\charles.souza\\AppData\\Local\\Programs\\Python\\Python311\\Lib\\netrc.py',
   'PYMODULE'),
  ('shlex',
   'C:\\Users\\charles.souza\\AppData\\Local\\Programs\\Python\\Python311\\Lib\\shlex.py',
   'PYMODULE'),
  ('mimetypes',
   'C:\\Users\\charles.souza\\AppData\\Local\\Programs\\Python\\Python311\\Lib\\mimetypes.py',
   'PYMODULE'),
  ('http.cookiejar',
   'C:\\Users\\charles.souza\\AppData\\Local\\Programs\\Python\\Python311\\Lib\\http\\cookiejar.py',
   'PYMODULE'),
  ('ctypes',
   'C:\\Users\\charles.souza\\AppData\\Local\\Programs\\Python\\Python311\\Lib\\ctypes\\__init__.py',
   'PYMODULE'),
  ('ctypes._endian',
   'C:\\Users\\charles.souza\\AppData\\Local\\Programs\\Python\\Python311\\Lib\\ctypes\\_endian.py',
   'PYMODULE'),
  ('colorama',
   'C:\\Users\\charles.souza\\AppData\\Local\\Programs\\Python\\Python311\\Lib\\site-packages\\colorama\\__init__.py',
   'PYMODULE'),
  ('colorama.ansitowin32',
   'C:\\Users\\charles.souza\\AppData\\Local\\Programs\\Python\\Python311\\Lib\\site-packages\\colorama\\ansitowin32.py',
   'PYMODULE'),
  ('colorama.winterm',
   'C:\\Users\\charles.souza\\AppData\\Local\\Programs\\Python\\Python311\\Lib\\site-packages\\colorama\\winterm.py',
   'PYMODULE'),
  ('colorama.ansi',
   'C:\\Users\\charles.souza\\AppData\\Local\\Programs\\Python\\Python311\\Lib\\site-packages\\colorama\\ansi.py',
   'PYMODULE'),
  ('colorama.initialise',
   'C:\\Users\\charles.souza\\AppData\\Local\\Programs\\Python\\Python311\\Lib\\site-packages\\colorama\\initialise.py',
   'PYMODULE'),
  ('colorama.win32',
   'C:\\Users\\charles.souza\\AppData\\Local\\Programs\\Python\\Python311\\Lib\\site-packages\\colorama\\win32.py',
   'PYMODULE'),
  ('ctypes.wintypes',
   'C:\\Users\\charles.souza\\AppData\\Local\\Programs\\Python\\Python311\\Lib\\ctypes\\wintypes.py',
   'PYMODULE'),
  ('subprocess',
   'C:\\Users\\charles.souza\\AppData\\Local\\Programs\\Python\\Python311\\Lib\\subprocess.py',
   'PYMODULE'),
  ('configparser',
   'C:\\Users\\charles.souza\\AppData\\Local\\Programs\\Python\\Python311\\Lib\\configparser.py',
   'PYMODULE'),
  ('pymem',
   'C:\\Users\\charles.souza\\AppData\\Local\\Programs\\Python\\Python311\\Lib\\site-packages\\pymem\\__init__.py',
   'PYMODULE'),
  ('pymem.pattern',
   'C:\\Users\\charles.souza\\AppData\\Local\\Programs\\Python\\Python311\\Lib\\site-packages\\pymem\\pattern.py',
   'PYMODULE'),
  ('pymem.thread',
   'C:\\Users\\charles.souza\\AppData\\Local\\Programs\\Python\\Python311\\Lib\\site-packages\\pymem\\thread.py',
   'PYMODULE'),
  ('pymem.ressources.ntdll',
   'C:\\Users\\charles.souza\\AppData\\Local\\Programs\\Python\\Python311\\Lib\\site-packages\\pymem\\ressources\\ntdll.py',
   'PYMODULE'),
  ('pymem.ressources',
   'C:\\Users\\charles.souza\\AppData\\Local\\Programs\\Python\\Python311\\Lib\\site-packages\\pymem\\ressources\\__init__.py',
   'PYMODULE'),
  ('unittest.mock',
   'C:\\Users\\charles.souza\\AppData\\Local\\Programs\\Python\\Python311\\Lib\\unittest\\mock.py',
   'PYMODULE'),
  ('unittest',
   'C:\\Users\\charles.souza\\AppData\\Local\\Programs\\Python\\Python311\\Lib\\unittest\\__init__.py',
   'PYMODULE'),
  ('unittest.async_case',
   'C:\\Users\\charles.souza\\AppData\\Local\\Programs\\Python\\Python311\\Lib\\unittest\\async_case.py',
   'PYMODULE'),
  ('unittest.signals',
   'C:\\Users\\charles.souza\\AppData\\Local\\Programs\\Python\\Python311\\Lib\\unittest\\signals.py',
   'PYMODULE'),
  ('unittest.main',
   'C:\\Users\\charles.souza\\AppData\\Local\\Programs\\Python\\Python311\\Lib\\unittest\\main.py',
   'PYMODULE'),
  ('unittest.runner',
   'C:\\Users\\charles.souza\\AppData\\Local\\Programs\\Python\\Python311\\Lib\\unittest\\runner.py',
   'PYMODULE'),
  ('unittest.loader',
   'C:\\Users\\charles.souza\\AppData\\Local\\Programs\\Python\\Python311\\Lib\\unittest\\loader.py',
   'PYMODULE'),
  ('unittest.suite',
   'C:\\Users\\charles.souza\\AppData\\Local\\Programs\\Python\\Python311\\Lib\\unittest\\suite.py',
   'PYMODULE'),
  ('unittest.case',
   'C:\\Users\\charles.souza\\AppData\\Local\\Programs\\Python\\Python311\\Lib\\unittest\\case.py',
   'PYMODULE'),
  ('unittest._log',
   'C:\\Users\\charles.souza\\AppData\\Local\\Programs\\Python\\Python311\\Lib\\unittest\\_log.py',
   'PYMODULE'),
  ('difflib',
   'C:\\Users\\charles.souza\\AppData\\Local\\Programs\\Python\\Python311\\Lib\\difflib.py',
   'PYMODULE'),
  ('unittest.result',
   'C:\\Users\\charles.souza\\AppData\\Local\\Programs\\Python\\Python311\\Lib\\unittest\\result.py',
   'PYMODULE'),
  ('unittest.util',
   'C:\\Users\\charles.souza\\AppData\\Local\\Programs\\Python\\Python311\\Lib\\unittest\\util.py',
   'PYMODULE'),
  ('asyncio',
   'C:\\Users\\charles.souza\\AppData\\Local\\Programs\\Python\\Python311\\Lib\\asyncio\\__init__.py',
   'PYMODULE'),
  ('asyncio.unix_events',
   'C:\\Users\\charles.souza\\AppData\\Local\\Programs\\Python\\Python311\\Lib\\asyncio\\unix_events.py',
   'PYMODULE'),
  ('asyncio.log',
   'C:\\Users\\charles.souza\\AppData\\Local\\Programs\\Python\\Python311\\Lib\\asyncio\\log.py',
   'PYMODULE'),
  ('asyncio.windows_events',
   'C:\\Users\\charles.souza\\AppData\\Local\\Programs\\Python\\Python311\\Lib\\asyncio\\windows_events.py',
   'PYMODULE'),
  ('asyncio.windows_utils',
   'C:\\Users\\charles.souza\\AppData\\Local\\Programs\\Python\\Python311\\Lib\\asyncio\\windows_utils.py',
   'PYMODULE'),
  ('asyncio.selector_events',
   'C:\\Users\\charles.souza\\AppData\\Local\\Programs\\Python\\Python311\\Lib\\asyncio\\selector_events.py',
   'PYMODULE'),
  ('asyncio.proactor_events',
   'C:\\Users\\charles.souza\\AppData\\Local\\Programs\\Python\\Python311\\Lib\\asyncio\\proactor_events.py',
   'PYMODULE'),
  ('asyncio.base_subprocess',
   'C:\\Users\\charles.souza\\AppData\\Local\\Programs\\Python\\Python311\\Lib\\asyncio\\base_subprocess.py',
   'PYMODULE'),
  ('asyncio.threads',
   'C:\\Users\\charles.souza\\AppData\\Local\\Programs\\Python\\Python311\\Lib\\asyncio\\threads.py',
   'PYMODULE'),
  ('asyncio.timeouts',
   'C:\\Users\\charles.souza\\AppData\\Local\\Programs\\Python\\Python311\\Lib\\asyncio\\timeouts.py',
   'PYMODULE'),
  ('asyncio.taskgroups',
   'C:\\Users\\charles.souza\\AppData\\Local\\Programs\\Python\\Python311\\Lib\\asyncio\\taskgroups.py',
   'PYMODULE'),
  ('asyncio.subprocess',
   'C:\\Users\\charles.souza\\AppData\\Local\\Programs\\Python\\Python311\\Lib\\asyncio\\subprocess.py',
   'PYMODULE'),
  ('asyncio.streams',
   'C:\\Users\\charles.souza\\AppData\\Local\\Programs\\Python\\Python311\\Lib\\asyncio\\streams.py',
   'PYMODULE'),
  ('asyncio.queues',
   'C:\\Users\\charles.souza\\AppData\\Local\\Programs\\Python\\Python311\\Lib\\asyncio\\queues.py',
   'PYMODULE'),
  ('asyncio.runners',
   'C:\\Users\\charles.souza\\AppData\\Local\\Programs\\Python\\Python311\\Lib\\asyncio\\runners.py',
   'PYMODULE'),
  ('asyncio.base_events',
   'C:\\Users\\charles.souza\\AppData\\Local\\Programs\\Python\\Python311\\Lib\\asyncio\\base_events.py',
   'PYMODULE'),
  ('concurrent.futures',
   'C:\\Users\\charles.souza\\AppData\\Local\\Programs\\Python\\Python311\\Lib\\concurrent\\futures\\__init__.py',
   'PYMODULE'),
  ('concurrent.futures.thread',
   'C:\\Users\\charles.souza\\AppData\\Local\\Programs\\Python\\Python311\\Lib\\concurrent\\futures\\thread.py',
   'PYMODULE'),
  ('concurrent.futures.process',
   'C:\\Users\\charles.souza\\AppData\\Local\\Programs\\Python\\Python311\\Lib\\concurrent\\futures\\process.py',
   'PYMODULE'),
  ('concurrent.futures._base',
   'C:\\Users\\charles.souza\\AppData\\Local\\Programs\\Python\\Python311\\Lib\\concurrent\\futures\\_base.py',
   'PYMODULE'),
  ('concurrent',
   'C:\\Users\\charles.souza\\AppData\\Local\\Programs\\Python\\Python311\\Lib\\concurrent\\__init__.py',
   'PYMODULE'),
  ('asyncio.trsock',
   'C:\\Users\\charles.souza\\AppData\\Local\\Programs\\Python\\Python311\\Lib\\asyncio\\trsock.py',
   'PYMODULE'),
  ('asyncio.staggered',
   'C:\\Users\\charles.souza\\AppData\\Local\\Programs\\Python\\Python311\\Lib\\asyncio\\staggered.py',
   'PYMODULE'),
  ('asyncio.tasks',
   'C:\\Users\\charles.souza\\AppData\\Local\\Programs\\Python\\Python311\\Lib\\asyncio\\tasks.py',
   'PYMODULE'),
  ('asyncio.locks',
   'C:\\Users\\charles.souza\\AppData\\Local\\Programs\\Python\\Python311\\Lib\\asyncio\\locks.py',
   'PYMODULE'),
  ('asyncio.base_tasks',
   'C:\\Users\\charles.souza\\AppData\\Local\\Programs\\Python\\Python311\\Lib\\asyncio\\base_tasks.py',
   'PYMODULE'),
  ('asyncio.mixins',
   'C:\\Users\\charles.souza\\AppData\\Local\\Programs\\Python\\Python311\\Lib\\asyncio\\mixins.py',
   'PYMODULE'),
  ('asyncio.sslproto',
   'C:\\Users\\charles.souza\\AppData\\Local\\Programs\\Python\\Python311\\Lib\\asyncio\\sslproto.py',
   'PYMODULE'),
  ('asyncio.transports',
   'C:\\Users\\charles.souza\\AppData\\Local\\Programs\\Python\\Python311\\Lib\\asyncio\\transports.py',
   'PYMODULE'),
  ('asyncio.protocols',
   'C:\\Users\\charles.souza\\AppData\\Local\\Programs\\Python\\Python311\\Lib\\asyncio\\protocols.py',
   'PYMODULE'),
  ('asyncio.futures',
   'C:\\Users\\charles.souza\\AppData\\Local\\Programs\\Python\\Python311\\Lib\\asyncio\\futures.py',
   'PYMODULE'),
  ('asyncio.base_futures',
   'C:\\Users\\charles.souza\\AppData\\Local\\Programs\\Python\\Python311\\Lib\\asyncio\\base_futures.py',
   'PYMODULE'),
  ('asyncio.exceptions',
   'C:\\Users\\charles.souza\\AppData\\Local\\Programs\\Python\\Python311\\Lib\\asyncio\\exceptions.py',
   'PYMODULE'),
  ('asyncio.events',
   'C:\\Users\\charles.souza\\AppData\\Local\\Programs\\Python\\Python311\\Lib\\asyncio\\events.py',
   'PYMODULE'),
  ('asyncio.format_helpers',
   'C:\\Users\\charles.souza\\AppData\\Local\\Programs\\Python\\Python311\\Lib\\asyncio\\format_helpers.py',
   'PYMODULE'),
  ('asyncio.coroutines',
   'C:\\Users\\charles.souza\\AppData\\Local\\Programs\\Python\\Python311\\Lib\\asyncio\\coroutines.py',
   'PYMODULE'),
  ('asyncio.constants',
   'C:\\Users\\charles.souza\\AppData\\Local\\Programs\\Python\\Python311\\Lib\\asyncio\\constants.py',
   'PYMODULE'),
  ('pymem.ressources.psapi',
   'C:\\Users\\charles.souza\\AppData\\Local\\Programs\\Python\\Python311\\Lib\\site-packages\\pymem\\ressources\\psapi.py',
   'PYMODULE'),
  ('pymem.ressources.structure',
   'C:\\Users\\charles.souza\\AppData\\Local\\Programs\\Python\\Python311\\Lib\\site-packages\\pymem\\ressources\\structure.py',
   'PYMODULE'),
  ('pymem.ressources.advapi32',
   'C:\\Users\\charles.souza\\AppData\\Local\\Programs\\Python\\Python311\\Lib\\site-packages\\pymem\\ressources\\advapi32.py',
   'PYMODULE'),
  ('pymem.ressources.kernel32',
   'C:\\Users\\charles.souza\\AppData\\Local\\Programs\\Python\\Python311\\Lib\\site-packages\\pymem\\ressources\\kernel32.py',
   'PYMODULE'),
  ('pymem.process',
   'C:\\Users\\charles.souza\\AppData\\Local\\Programs\\Python\\Python311\\Lib\\site-packages\\pymem\\process.py',
   'PYMODULE'),
  ('pymem.memory',
   'C:\\Users\\charles.souza\\AppData\\Local\\Programs\\Python\\Python311\\Lib\\site-packages\\pymem\\memory.py',
   'PYMODULE'),
  ('pymem.exception',
   'C:\\Users\\charles.souza\\AppData\\Local\\Programs\\Python\\Python311\\Lib\\site-packages\\pymem\\exception.py',
   'PYMODULE'),
  ('platform',
   'C:\\Users\\charles.souza\\AppData\\Local\\Programs\\Python\\Python311\\Lib\\platform.py',
   'PYMODULE'),
  ('ctypes.util',
   'C:\\Users\\charles.souza\\AppData\\Local\\Programs\\Python\\Python311\\Lib\\ctypes\\util.py',
   'PYMODULE'),
  ('ctypes._aix',
   'C:\\Users\\charles.souza\\AppData\\Local\\Programs\\Python\\Python311\\Lib\\ctypes\\_aix.py',
   'PYMODULE'),
  ('ctypes.macholib.dyld',
   'C:\\Users\\charles.souza\\AppData\\Local\\Programs\\Python\\Python311\\Lib\\ctypes\\macholib\\dyld.py',
   'PYMODULE'),
  ('ctypes.macholib',
   'C:\\Users\\charles.souza\\AppData\\Local\\Programs\\Python\\Python311\\Lib\\ctypes\\macholib\\__init__.py',
   'PYMODULE'),
  ('ctypes.macholib.dylib',
   'C:\\Users\\charles.souza\\AppData\\Local\\Programs\\Python\\Python311\\Lib\\ctypes\\macholib\\dylib.py',
   'PYMODULE'),
  ('ctypes.macholib.framework',
   'C:\\Users\\charles.souza\\AppData\\Local\\Programs\\Python\\Python311\\Lib\\ctypes\\macholib\\framework.py',
   'PYMODULE')])
